{
  "project_info": {
    "project_number": "46397191678",
    "firebase_url": "https://idcm-reference-app.firebaseio.com",
    "project_id": "idcm-reference-app",
    "storage_bucket": "idcm-reference-app.appspot.com"
  },
  "client": [
    {
      "client_info": {
        "mobilesdk_app_id": "1:46397191678:android:087d839099d5754d",
        "android_client_info": {
          "package_name": "com.mastercard.identitycheck"
        }
      },
      "oauth_client": [
        {
          "client_id": "<oauth_Client>",
          "client_type": 3
        }
      ],
      "api_key": [
        {
          "current_key": "<API_KEY>"
        }
      ],
      "services": {
        "analytics_service": {
          "status": 1
        },
        "appinvite_service": {
          "status": 1,
          "other_platform_oauth_client": []
        },
        "ads_service": {
          "status": 2
        }
      }
    }
  ],
  "configuration_version": "1"
}